<?xml version="1.0" encoding="UTF-8"?><svg xmlns="http://www.w3.org/2000/svg" xmlns:xlink="http://www.w3.org/1999/xlink" fill-opacity="1" color-rendering="auto" color-interpolation="auto" stroke="black" text-rendering="auto" stroke-linecap="square" width="352" stroke-miterlimit="10" stroke-opacity="1" shape-rendering="auto" fill="black" stroke-dasharray="none" font-weight="normal" stroke-width="1" height="189" font-family="'Dialog'" font-style="normal" stroke-linejoin="miter" font-size="12" stroke-dashoffset="0" image-rendering="auto">
  <!--Generated by ySVG-->
  <defs id="genericDefs"/>
  <g>
    <defs id="defs1">
      <clipPath clipPathUnits="userSpaceOnUse" id="clipPath1">
        <path d="M0 0 L352 0 L352 189 L0 189 L0 0 Z"/>
      </clipPath>
      <clipPath clipPathUnits="userSpaceOnUse" id="clipPath2">
        <path d="M307 181 L659 181 L659 370 L307 370 L307 181 Z"/>
      </clipPath>
    </defs>
    <g fill="rgb(255,204,0)" transform="matrix(1,0,0,1,-307,-181)" stroke="rgb(255,204,0)">
      <rect x="398" width="30" height="30" y="196" clip-path="url(#clipPath2)" stroke="none"/>
    </g>
    <g stroke-miterlimit="1.45" font-family="sans-serif" transform="matrix(1,0,0,1,-307,-181)" stroke-linecap="butt">
      <text x="407.6123" xml:space="preserve" y="215.1543" clip-path="url(#clipPath2)" stroke="none">IP</text>
      <rect fill="none" x="398" width="30" height="30" y="196" clip-path="url(#clipPath2)"/>
    </g>
    <g fill="rgb(255,102,0)" transform="matrix(1,0,0,1,-307,-181)" stroke="rgb(255,102,0)">
      <rect x="428" width="124" height="30" y="196" clip-path="url(#clipPath2)" stroke="none"/>
    </g>
    <g stroke-miterlimit="1.45" font-family="sans-serif" transform="matrix(1,0,0,1,-307,-181)" stroke-linecap="butt">
      <text x="464.4062" xml:space="preserve" y="215.1543" clip-path="url(#clipPath2)" stroke="none">données</text>
      <rect fill="none" x="428" width="124" height="30" y="196" clip-path="url(#clipPath2)"/>
    </g>
    <g fill="rgb(255,204,0)" transform="matrix(1,0,0,1,-307,-181)" stroke="rgb(255,204,0)">
      <rect x="398" width="30" height="30" y="256" clip-path="url(#clipPath2)" stroke="none"/>
    </g>
    <g stroke-miterlimit="1.45" font-family="sans-serif" transform="matrix(1,0,0,1,-307,-181)" stroke-linecap="butt">
      <text x="407.6123" xml:space="preserve" y="275.1543" clip-path="url(#clipPath2)" stroke="none">IP</text>
      <rect fill="none" x="398" width="30" height="30" y="256" clip-path="url(#clipPath2)"/>
    </g>
    <g fill="rgb(51,102,255)" transform="matrix(1,0,0,1,-307,-181)" stroke="rgb(51,102,255)">
      <rect x="352" width="46" height="30" y="256" clip-path="url(#clipPath2)" stroke="none"/>
    </g>
    <g stroke-miterlimit="1.45" font-family="sans-serif" transform="matrix(1,0,0,1,-307,-181)" stroke-linecap="butt">
      <text x="363.7822" xml:space="preserve" y="268.1699" clip-path="url(#clipPath2)" stroke="none">ESP</text>
      <text x="353.8623" xml:space="preserve" y="282.1387" clip-path="url(#clipPath2)" stroke="none">header</text>
      <rect fill="none" x="352" width="46" height="30" y="256" clip-path="url(#clipPath2)"/>
    </g>
    <g fill="rgb(255,102,0)" transform="matrix(1,0,0,1,-307,-181)" stroke="rgb(255,102,0)">
      <rect x="428" width="124" height="30" y="256" clip-path="url(#clipPath2)" stroke="none"/>
    </g>
    <g stroke-miterlimit="1.45" font-family="sans-serif" transform="matrix(1,0,0,1,-307,-181)" stroke-linecap="butt">
      <text x="464.4062" xml:space="preserve" y="275.1543" clip-path="url(#clipPath2)" stroke="none">données</text>
      <rect fill="none" x="428" width="124" height="30" y="256" clip-path="url(#clipPath2)"/>
    </g>
    <g fill="rgb(0,204,255)" transform="matrix(1,0,0,1,-307,-181)" stroke="rgb(0,204,255)">
      <rect x="552" width="46" height="30" y="256" clip-path="url(#clipPath2)" stroke="none"/>
    </g>
    <g stroke-miterlimit="1.45" font-family="sans-serif" transform="matrix(1,0,0,1,-307,-181)" stroke-linecap="butt">
      <text x="563.7822" xml:space="preserve" y="268.1699" clip-path="url(#clipPath2)" stroke="none">ESP</text>
      <text x="557.0117" xml:space="preserve" y="282.1387" clip-path="url(#clipPath2)" stroke="none">trailer</text>
      <rect fill="none" x="552" width="46" height="30" y="256" clip-path="url(#clipPath2)"/>
    </g>
    <g fill="rgb(153,204,255)" transform="matrix(1,0,0,1,-307,-181)" stroke="rgb(153,204,255)">
      <rect x="598" width="46" height="30" y="256" clip-path="url(#clipPath2)" stroke="none"/>
    </g>
    <g stroke-miterlimit="1.45" font-family="sans-serif" transform="matrix(1,0,0,1,-307,-181)" stroke-linecap="butt">
      <text x="609.7822" xml:space="preserve" y="268.1699" clip-path="url(#clipPath2)" stroke="none">ESP</text>
      <text x="607.3652" xml:space="preserve" y="282.1387" clip-path="url(#clipPath2)" stroke="none">auth</text>
      <rect fill="none" x="598" width="46" height="30" y="256" clip-path="url(#clipPath2)"/>
      <rect fill="none" x="398" width="1" height="30" y="286" clip-path="url(#clipPath2)"/>
      <rect fill="none" x="352" width="1" height="59.7856" y="286.2144" clip-path="url(#clipPath2)"/>
      <rect fill="none" x="597" width="1" height="59.7856" y="286.2144" clip-path="url(#clipPath2)"/>
    </g>
    <g fill="lime" transform="matrix(1,0,0,1,-307,-181)" stroke="lime">
      <rect x="322" width="30" height="30" y="256" clip-path="url(#clipPath2)" stroke="none"/>
    </g>
    <g stroke-miterlimit="1.45" font-family="sans-serif" transform="matrix(1,0,0,1,-307,-181)" stroke-linecap="butt">
      <text x="331.6123" xml:space="preserve" y="275.1543" clip-path="url(#clipPath2)" stroke="none">IP</text>
      <rect fill="none" x="322" width="30" height="30" y="256" clip-path="url(#clipPath2)"/>
      <path fill="none" d="M413 226 L413 248" clip-path="url(#clipPath2)"/>
      <path d="M413 256 L418 244 L413 247 L408 244 Z" clip-path="url(#clipPath2)" stroke="none"/>
      <path fill="none" d="M490 226 L490 248" clip-path="url(#clipPath2)"/>
      <path d="M490 256 L495 244 L490 247 L485 244 Z" clip-path="url(#clipPath2)" stroke="none"/>
      <path fill="none" d="M407 301.0085 L590 301.1914" clip-path="url(#clipPath2)"/>
      <path d="M399 301.0005 L410.995 306.0125 L408 301.0095 L411.005 296.0125 Z" clip-path="url(#clipPath2)" stroke="none"/>
      <path d="M598 301.1994 L586.005 296.1874 L589 301.1904 L585.995 306.1874 Z" clip-path="url(#clipPath2)" stroke="none"/>
      <text x="474.2033" xml:space="preserve" y="314.7735" clip-path="url(#clipPath2)" stroke="none">chiffré</text>
      <path fill="none" d="M361.3317 336.8712 L590.3963 338.7855" clip-path="url(#clipPath2)"/>
      <path d="M353.332 336.8044 L365.2898 341.9044 L362.3317 336.8795 L365.3734 331.9048 Z" clip-path="url(#clipPath2)" stroke="none"/>
      <path d="M598.396 338.8523 L586.4382 333.7523 L589.3963 338.7771 L586.3546 343.7519 Z" clip-path="url(#clipPath2)" stroke="none"/>
      <text x="438.9206" xml:space="preserve" y="349.8521" clip-path="url(#clipPath2)" stroke="none">authentifié</text>
    </g>
  </g>
</svg>
