<?xml version="1.0" encoding="UTF-8"?><svg xmlns="http://www.w3.org/2000/svg" xmlns:xlink="http://www.w3.org/1999/xlink" fill-opacity="1" color-rendering="auto" color-interpolation="auto" stroke="black" text-rendering="auto" stroke-linecap="square" width="322" stroke-miterlimit="10" stroke-opacity="1" shape-rendering="auto" fill="black" stroke-dasharray="none" font-weight="normal" stroke-width="1" height="189" font-family="'Dialog'" font-style="normal" stroke-linejoin="miter" font-size="12" stroke-dashoffset="0" image-rendering="auto">
  <!--Generated by ySVG-->
  <defs id="genericDefs"/>
  <g>
    <defs id="defs1">
      <clipPath clipPathUnits="userSpaceOnUse" id="clipPath1">
        <path d="M0 0 L322 0 L322 189 L0 189 L0 0 Z"/>
      </clipPath>
      <clipPath clipPathUnits="userSpaceOnUse" id="clipPath2">
        <path d="M312 156 L634 156 L634 345 L312 345 L312 156 Z"/>
      </clipPath>
    </defs>
    <g fill="rgb(255,204,0)" transform="matrix(1,0,0,1,-312,-156)" stroke="rgb(255,204,0)">
      <rect x="373" width="30" height="30" y="171" clip-path="url(#clipPath2)" stroke="none"/>
    </g>
    <g stroke-miterlimit="1.45" font-family="sans-serif" transform="matrix(1,0,0,1,-312,-156)" stroke-linecap="butt">
      <text x="382.6123" xml:space="preserve" y="190.1543" clip-path="url(#clipPath2)" stroke="none">IP</text>
      <rect fill="none" x="373" width="30" height="30" y="171" clip-path="url(#clipPath2)"/>
    </g>
    <g fill="rgb(255,102,0)" transform="matrix(1,0,0,1,-312,-156)" stroke="rgb(255,102,0)">
      <rect x="403" width="124" height="30" y="171" clip-path="url(#clipPath2)" stroke="none"/>
    </g>
    <g stroke-miterlimit="1.45" font-family="sans-serif" transform="matrix(1,0,0,1,-312,-156)" stroke-linecap="butt">
      <text x="439.4062" xml:space="preserve" y="190.1543" clip-path="url(#clipPath2)" stroke="none">données</text>
      <rect fill="none" x="403" width="124" height="30" y="171" clip-path="url(#clipPath2)"/>
    </g>
    <g fill="rgb(255,204,0)" transform="matrix(1,0,0,1,-312,-156)" stroke="rgb(255,204,0)">
      <rect x="327" width="30" height="30" y="231" clip-path="url(#clipPath2)" stroke="none"/>
    </g>
    <g stroke-miterlimit="1.45" font-family="sans-serif" transform="matrix(1,0,0,1,-312,-156)" stroke-linecap="butt">
      <text x="336.6123" xml:space="preserve" y="250.1543" clip-path="url(#clipPath2)" stroke="none">IP</text>
      <rect fill="none" x="327" width="30" height="30" y="231" clip-path="url(#clipPath2)"/>
    </g>
    <g fill="rgb(51,102,255)" transform="matrix(1,0,0,1,-312,-156)" stroke="rgb(51,102,255)">
      <rect x="357" width="46" height="30" y="231" clip-path="url(#clipPath2)" stroke="none"/>
    </g>
    <g stroke-miterlimit="1.45" font-family="sans-serif" transform="matrix(1,0,0,1,-312,-156)" stroke-linecap="butt">
      <text x="368.7822" xml:space="preserve" y="243.1699" clip-path="url(#clipPath2)" stroke="none">ESP</text>
      <text x="358.8623" xml:space="preserve" y="257.1387" clip-path="url(#clipPath2)" stroke="none">header</text>
      <rect fill="none" x="357" width="46" height="30" y="231" clip-path="url(#clipPath2)"/>
    </g>
    <g fill="rgb(255,102,0)" transform="matrix(1,0,0,1,-312,-156)" stroke="rgb(255,102,0)">
      <rect x="403" width="124" height="30" y="231" clip-path="url(#clipPath2)" stroke="none"/>
    </g>
    <g stroke-miterlimit="1.45" font-family="sans-serif" transform="matrix(1,0,0,1,-312,-156)" stroke-linecap="butt">
      <text x="439.4062" xml:space="preserve" y="250.1543" clip-path="url(#clipPath2)" stroke="none">données</text>
      <rect fill="none" x="403" width="124" height="30" y="231" clip-path="url(#clipPath2)"/>
    </g>
    <g fill="rgb(0,204,255)" transform="matrix(1,0,0,1,-312,-156)" stroke="rgb(0,204,255)">
      <rect x="527" width="46" height="30" y="231" clip-path="url(#clipPath2)" stroke="none"/>
    </g>
    <g stroke-miterlimit="1.45" font-family="sans-serif" transform="matrix(1,0,0,1,-312,-156)" stroke-linecap="butt">
      <text x="538.7822" xml:space="preserve" y="243.1699" clip-path="url(#clipPath2)" stroke="none">ESP</text>
      <text x="532.0117" xml:space="preserve" y="257.1387" clip-path="url(#clipPath2)" stroke="none">trailer</text>
      <rect fill="none" x="527" width="46" height="30" y="231" clip-path="url(#clipPath2)"/>
    </g>
    <g fill="rgb(153,204,255)" transform="matrix(1,0,0,1,-312,-156)" stroke="rgb(153,204,255)">
      <rect x="573" width="46" height="30" y="231" clip-path="url(#clipPath2)" stroke="none"/>
    </g>
    <g stroke-miterlimit="1.45" font-family="sans-serif" transform="matrix(1,0,0,1,-312,-156)" stroke-linecap="butt">
      <text x="584.7822" xml:space="preserve" y="243.1699" clip-path="url(#clipPath2)" stroke="none">ESP</text>
      <text x="582.3652" xml:space="preserve" y="257.1387" clip-path="url(#clipPath2)" stroke="none">auth</text>
      <rect fill="none" x="573" width="46" height="30" y="231" clip-path="url(#clipPath2)"/>
      <rect fill="none" x="403" width="1" height="30" y="261" clip-path="url(#clipPath2)"/>
      <rect fill="none" x="356" width="1" height="59.7856" y="261.2144" clip-path="url(#clipPath2)"/>
      <rect fill="none" x="572" width="1" height="59.7856" y="261.2144" clip-path="url(#clipPath2)"/>
      <path fill="none" d="M376.5 201 L358.3675 224.6512" clip-path="url(#clipPath2)"/>
      <path d="M353.5 231 L364.7692 224.5189 L358.9759 223.8575 L356.8332 218.4346 Z" clip-path="url(#clipPath2)" stroke="none"/>
      <path fill="none" d="M465 201 L465 223" clip-path="url(#clipPath2)"/>
      <path d="M465 231 L470 219 L465 222 L460 219 Z" clip-path="url(#clipPath2)" stroke="none"/>
      <path fill="none" d="M412 276.0099 L565 276.1877" clip-path="url(#clipPath2)"/>
      <path d="M404 276.0006 L415.9942 281.0145 L413 276.011 L416.0058 271.0146 Z" clip-path="url(#clipPath2)" stroke="none"/>
      <path d="M573 276.197 L561.0058 271.183 L564 276.1865 L560.9942 281.183 Z" clip-path="url(#clipPath2)" stroke="none"/>
      <text x="465.2556" xml:space="preserve" y="289.7727" clip-path="url(#clipPath2)" stroke="none">chiffré</text>
      <path fill="none" d="M365.3316 311.8802 L565.3964 313.7765" clip-path="url(#clipPath2)"/>
      <path d="M357.332 311.8044 L369.2841 316.9178 L366.3316 311.8896 L369.3788 306.9183 Z" clip-path="url(#clipPath2)" stroke="none"/>
      <path d="M573.396 313.8523 L561.4439 308.7388 L564.3964 313.767 L561.3492 318.7384 Z" clip-path="url(#clipPath2)" stroke="none"/>
      <text x="429.0296" xml:space="preserve" y="324.8531" clip-path="url(#clipPath2)" stroke="none">authentifié</text>
    </g>
  </g>
</svg>
